{
 "name": "countdownTimer",
 "description": "Countdown timer with Go, Wails and Svelte",
 "author": {
  "name": "Eric N Smith",
  "email": ""
 },
 "version": "0.1.0",
 "binaryname": "countdowntimer",
 "frontend": {
  "dir": "frontend",
  "install": "npm install",
  "build": "npm run build",
  "bridge": "src",
  "serve": "npm run serve"
 },
 "tags": "",
 "WailsVersion": "",
 "CrossCompile": false,
 "Platform": "",
 "Architecture": "",
 "LdFlags": "",
 "GoPath": "",
 "UseFirebug": false
}